…
```r
  print(totalStepsPerDay)
```

```
## # A tibble: 61 x 4
##    date       mean.steps sum.steps median.steps
##    <fct>           <dbl>     <int>        <dbl>
##  1 2012-10-01    NaN             0           NA
##  2 2012-10-02      0.438       126            0
##  3 2012-10-03     39.4       11352            0
##  4 2012-10-04     42.1       12116            0
##  5 2012-10-05     46.2       13294            0
##  6 2012-10-06     53.5       15420            0
##  7 2012-10-07     38.2       11015            0
##  8 2012-10-08    NaN             0           NA
##  9 2012-10-09     44.5       12811            0
## 10 2012-10-10     34.4        9900            0
## # ... with 51 more rows
```
…
## Histogram of the total number of steps taken each day after missing values are imputed

```r
newdf<-data.frame(steps=newsteps,date=data$date,interval=data$interval)
  totalStepsPerDay<-newdf %>% group_by(date) %>% summarise(mean.steps=mean(steps,na.rm=TRUE),sum.steps=sum(steps,na.rm = TRUE),median.steps=median(steps,na.rm = TRUE))
  print(totalStepsPerDay)
```

```
## # A tibble: 61 x 4
##    date       mean.steps sum.steps median.steps
##    <fct>           <dbl>     <dbl>        <dbl>
##  1 2012-10-01     37.4      10766.         34.1
##  2 2012-10-02      0.438      126           0  
##  3 2012-10-03     39.4      11352           0  
##  4 2012-10-04     42.1      12116           0  
##  5 2012-10-05     46.2      13294           0  
##  6 2012-10-06     53.5      15420           0  
##  7 2012-10-07     38.2      11015           0  
##  8 2012-10-08     37.4      10766.         34.1
##  9 2012-10-09     44.5      12811           0  
## 10 2012-10-10     34.4       9900           0  
## # ... with 51 more rows
```
…
```r
  totalStepsPerDay<-data %>% group_by(date) %>% summarise(mean.steps=mean(steps,na.rm=TRUE),sum.steps=sum(steps,na.rm = TRUE),median.steps=median(steps,na.rm = TRUE))
  print(totalStepsPerDay)
```

# A tibble: 61 x 4
   date       mean.steps sum.steps median.steps
   <fct>           <dbl>     <int>        <dbl>
 1 2012-10-01    NaN             0           NA
 2 2012-10-02      0.438       126            0
 3 2012-10-03     39.4       11352            0
 4 2012-10-04     42.1       12116            0
 5 2012-10-05     46.2       13294            0
 6 2012-10-06     53.5       15420            0
 7 2012-10-07     38.2       11015            0
 8 2012-10-08    NaN             0           NA
 9 2012-10-09     44.5       12811            0
10 2012-10-10     34.4        9900            0
# ... with 51 more rows
…
  newdf<-data.frame(steps=newsteps,date=data$date,interval=data$interval)
  totalStepsPerDay<-newdf %>% group_by(date) %>% summarise(mean.steps=mean(steps,na.rm=TRUE),sum.steps=sum(steps,na.rm = TRUE),median.steps=median(steps,na.rm = TRUE))
  print(totalStepsPerDay)
```

# A tibble: 61 x 4
   date       mean.steps sum.steps median.steps
   <fct>           <dbl>     <dbl>        <dbl>
 1 2012-10-01     37.4      10766.         34.1
 2 2012-10-02      0.438      126           0  
 3 2012-10-03     39.4      11352           0  
 4 2012-10-04     42.1      12116           0  
 5 2012-10-05     46.2      13294           0  
 6 2012-10-06     53.5      15420           0  
 7 2012-10-07     38.2      11015           0  
 8 2012-10-08     37.4      10766.         34.1
 9 2012-10-09     44.5      12811           0  
10 2012-10-10     34.4       9900           0  
# ... with 51 more rows
…
